//Maya ASCII 2020 scene
//Name: Arnold Luxo ball.ma
//Last modified: Thu, Jun 11, 2020 08:10:04 AM
//Codeset: 1252
requires maya "2020";
requires -nodeType "aiStandardSurface" "mtoa" "4.0.0";
currentUnit -l centimeter -a degree -t film;
fileInfo "application" "maya";
fileInfo "product" "Maya 2020";
fileInfo "version" "2020";
fileInfo "cutIdentifier" "201911140446-42a737a01c";
fileInfo "osv" "Microsoft Windows 10 Technical Preview  (Build 18363)\n";
fileInfo "UUID" "0BE7A711-43F1-17E5-3B89-029434D69F2F";
fileInfo "license" "student";
createNode transform -n "Luxo_ball_Arnold";
	rename -uid "51466633-4642-AF92-E4BF-22AD395683C7";
	setAttr ".t" -type "double3" 0 4.9999999999999982 0 ;
	setAttr ".s" -type "double3" 5 5 5 ;
	setAttr ".rp" -type "double3" -8.9406967163085938e-07 4.4408920985006262e-16 -8.9406967163085938e-07 ;
	setAttr ".sp" -type "double3" -1.7881393432617188e-07 0 -1.7881393432617188e-07 ;
	setAttr ".spt" -type "double3" -7.152557373046875e-07 4.4408920985006262e-16 -7.152557373046875e-07 ;
createNode mesh -n "Luxo_ball_ArnoldShape" -p "Luxo_ball_Arnold";
	rename -uid "C2925BAA-4370-65C7-553C-B9889D4BDD13";
	setAttr -k off ".v";
	setAttr -s 4 ".iog[0].og";
	setAttr ".vir" yes;
	setAttr ".vif" yes;
	setAttr -s 2 ".ciog[0].cog";
	setAttr ".pv" -type "double2" 0.49999979138374329 0.5 ;
	setAttr ".uvst[0].uvsn" -type "string" "map1";
	setAttr ".cuvs" -type "string" "map1";
	setAttr ".dcc" -type "string" "Ambient+Diffuse";
	setAttr ".covm[0]"  0 1 1;
	setAttr ".cdvm[0]"  0 1 1;
	setAttr ".ai_translator" -type "string" "polymesh";
createNode groupId -n "groupId2";
	rename -uid "3896DDB8-4B2E-AE1E-BD87-DA9A56221AF9";
	setAttr ".ihi" 0;
createNode shadingEngine -n "aiStandardSurface2SG";
	rename -uid "2ABA34FF-443C-FBA2-36F6-24AF86F28093";
	setAttr ".ihi" 0;
	setAttr ".ro" yes;
createNode materialInfo -n "materialInfo4";
	rename -uid "DFEE4BAA-44A8-975E-CB7B-C2AB2FC33C6F";
createNode aiStandardSurface -n "aiStandardSurface2";
	rename -uid "ECFEF514-419F-40E9-04C3-2D88737558F8";
createNode file -n "file2";
	rename -uid "AED15584-4F1F-AADC-2274-98B415D9B7DF";
	setAttr ".ftn" -type "string" "C:/Users/Edwin/Pictures/luxo ball.jpg";
	setAttr ".cs" -type "string" "sRGB";
createNode place2dTexture -n "place2dTexture2";
	rename -uid "7F84B165-4C4E-7B3F-002D-11B33A56008F";
createNode groupId -n "groupId4";
	rename -uid "817E7393-42D0-1E4A-5FAB-04864B1F4606";
	setAttr ".ihi" 0;
createNode shadingEngine -n "aiStandardSurface1SG";
	rename -uid "1943B0AB-4FB4-5E1A-20E8-22BA9B3E99D1";
	setAttr ".ihi" 0;
	setAttr ".ro" yes;
createNode materialInfo -n "materialInfo3";
	rename -uid "D947BA79-442C-610A-174A-14A78E944C86";
createNode aiStandardSurface -n "aiStandardSurface1";
	rename -uid "342070F3-4B3A-39F6-DCC9-5D98F5CEB455";
	setAttr ".base_color" -type "float3" 0.058000028 0.058000028 1 ;
createNode groupParts -n "groupParts3";
	rename -uid "E9E8A092-409D-3B2F-F39B-0AB90B8BB9D1";
	setAttr ".ihi" 0;
	setAttr ".ic" -type "componentList" 1 "f[560:959]";
createNode groupParts -n "groupParts2";
	rename -uid "853A156E-47DB-99D6-1A13-C7AA35A1153D";
	setAttr ".ihi" 0;
	setAttr ".ic" -type "componentList" 2 "f[0:559]" "f[960:1599]";
	setAttr ".irc" -type "componentList" 1 "f[560:959]";
createNode polyPlanarProj -n "polyPlanarProj1";
	rename -uid "CB7ED4D5-44C5-6413-AB41-1AAE5D00C0E8";
	setAttr ".uopa" yes;
	setAttr ".ics" -type "componentList" 2 "f[0:559]" "f[960:1599]";
	setAttr ".ix" -type "matrix" 5 0 0 0 0 5 0 0 0 0 5 0 0 0 0 1;
	setAttr ".ws" yes;
	setAttr ".pc" -type "double3" -9.5367431640625e-07 0 -9.5367431640625e-07 ;
	setAttr ".ro" -type "double3" -90 0 0 ;
	setAttr ".ps" -type "double2" 9.2387981414794922 9.238800048828125 ;
	setAttr ".cam" -type "matrix" 1 0 0 0 0 1 0 0 0 0 1 0 0 0 0 1;
createNode polySphere -n "polySphere1";
	rename -uid "E8D15DB8-4A42-6362-86B1-8EB5B5F5AD1A";
	setAttr ".sa" 40;
	setAttr ".sh" 40;
createNode groupId -n "groupId3";
	rename -uid "D301B4F8-451A-3108-54B9-5BB7271F7F78";
	setAttr ".ihi" 0;
createNode lightLinker -s -n "lightLinker1";
	rename -uid "D9533172-41B8-3B47-5EA9-DE913AC05F00";
	setAttr -s 6 ".lnk";
	setAttr -s 6 ".slnk";
select -ne :time1;
	setAttr ".o" 0;
select -ne :hardwareRenderingGlobals;
	setAttr ".otfna" -type "stringArray" 22 "NURBS Curves" "NURBS Surfaces" "Polygons" "Subdiv Surface" "Particles" "Particle Instance" "Fluids" "Strokes" "Image Planes" "UI" "Lights" "Cameras" "Locators" "Joints" "IK Handles" "Deformers" "Motion Trails" "Components" "Hair Systems" "Follicles" "Misc. UI" "Ornaments"  ;
	setAttr ".otfva" -type "Int32Array" 22 0 1 1 1 1 1
		 1 1 1 0 0 0 0 0 0 0 0 0
		 0 0 0 0 ;
	setAttr ".fprt" yes;
select -ne :renderPartition;
	setAttr -s 6 ".st";
select -ne :renderGlobalsList1;
select -ne :defaultShaderList1;
	setAttr -s 7 ".s";
select -ne :postProcessList1;
	setAttr -s 2 ".p";
select -ne :defaultRenderUtilityList1;
	setAttr -s 2 ".u";
select -ne :defaultRenderingList1;
	setAttr -s 8 ".r";
select -ne :lightList1;
select -ne :defaultTextureList1;
	setAttr -s 2 ".tx";
select -ne :initialShadingGroup;
	setAttr -s 2 ".dsm";
	setAttr ".ro" yes;
select -ne :initialParticleSE;
	setAttr ".ro" yes;
select -ne :defaultRenderGlobals;
	setAttr ".ren" -type "string" "renderman";
	setAttr ".imfkey" -type "string" "exr";
	setAttr ".pff" yes;
select -ne :defaultResolution;
	setAttr ".w" 1280;
	setAttr ".h" 720;
	setAttr ".pa" 1;
	setAttr ".dar" 1.7777777910232544;
select -ne :defaultLightSet;
select -ne :hardwareRenderGlobals;
	setAttr ".ctrs" 256;
	setAttr ".btrs" 512;
connectAttr "groupId2.id" "Luxo_ball_ArnoldShape.iog.og[3].gid";
connectAttr "aiStandardSurface2SG.mwc" "Luxo_ball_ArnoldShape.iog.og[3].gco";
connectAttr "groupId4.id" "Luxo_ball_ArnoldShape.iog.og[4].gid";
connectAttr "aiStandardSurface1SG.mwc" "Luxo_ball_ArnoldShape.iog.og[4].gco";
connectAttr "groupParts3.og" "Luxo_ball_ArnoldShape.i";
connectAttr "groupId3.id" "Luxo_ball_ArnoldShape.ciog.cog[1].cgid";
connectAttr "aiStandardSurface2.out" "aiStandardSurface2SG.ss";
connectAttr "Luxo_ball_ArnoldShape.iog.og[3]" "aiStandardSurface2SG.dsm" -na;
connectAttr "groupId2.msg" "aiStandardSurface2SG.gn" -na;
connectAttr "aiStandardSurface2SG.msg" "materialInfo4.sg";
connectAttr "aiStandardSurface2.msg" "materialInfo4.m";
connectAttr "aiStandardSurface2.msg" "materialInfo4.t" -na;
connectAttr "file2.oc" "aiStandardSurface2.base_color";
connectAttr ":defaultColorMgtGlobals.cme" "file2.cme";
connectAttr ":defaultColorMgtGlobals.cfe" "file2.cmcf";
connectAttr ":defaultColorMgtGlobals.cfp" "file2.cmcp";
connectAttr ":defaultColorMgtGlobals.wsn" "file2.ws";
connectAttr "place2dTexture2.c" "file2.c";
connectAttr "place2dTexture2.tf" "file2.tf";
connectAttr "place2dTexture2.rf" "file2.rf";
connectAttr "place2dTexture2.mu" "file2.mu";
connectAttr "place2dTexture2.mv" "file2.mv";
connectAttr "place2dTexture2.s" "file2.s";
connectAttr "place2dTexture2.wu" "file2.wu";
connectAttr "place2dTexture2.wv" "file2.wv";
connectAttr "place2dTexture2.re" "file2.re";
connectAttr "place2dTexture2.of" "file2.of";
connectAttr "place2dTexture2.r" "file2.ro";
connectAttr "place2dTexture2.n" "file2.n";
connectAttr "place2dTexture2.vt1" "file2.vt1";
connectAttr "place2dTexture2.vt2" "file2.vt2";
connectAttr "place2dTexture2.vt3" "file2.vt3";
connectAttr "place2dTexture2.vc1" "file2.vc1";
connectAttr "place2dTexture2.o" "file2.uv";
connectAttr "place2dTexture2.ofs" "file2.fs";
connectAttr "aiStandardSurface1.out" "aiStandardSurface1SG.ss";
connectAttr "Luxo_ball_ArnoldShape.iog.og[4]" "aiStandardSurface1SG.dsm" -na;
connectAttr "groupId4.msg" "aiStandardSurface1SG.gn" -na;
connectAttr "aiStandardSurface1SG.msg" "materialInfo3.sg";
connectAttr "aiStandardSurface1.msg" "materialInfo3.m";
connectAttr "aiStandardSurface1.msg" "materialInfo3.t" -na;
connectAttr "groupParts2.og" "groupParts3.ig";
connectAttr "groupId4.id" "groupParts3.gi";
connectAttr "polyPlanarProj1.out" "groupParts2.ig";
connectAttr "groupId2.id" "groupParts2.gi";
connectAttr "polySphere1.out" "polyPlanarProj1.ip";
connectAttr "Luxo_ball_ArnoldShape.wm" "polyPlanarProj1.mp";
relationship "link" ":lightLinker1" ":initialShadingGroup.message" ":defaultLightSet.message";
relationship "link" ":lightLinker1" ":initialParticleSE.message" ":defaultLightSet.message";
relationship "link" ":lightLinker1" "aiStandardSurface1SG.message" ":defaultLightSet.message";
relationship "link" ":lightLinker1" "aiStandardSurface2SG.message" ":defaultLightSet.message";
relationship "shadowLink" ":lightLinker1" ":initialShadingGroup.message" ":defaultLightSet.message";
relationship "shadowLink" ":lightLinker1" ":initialParticleSE.message" ":defaultLightSet.message";
relationship "shadowLink" ":lightLinker1" "aiStandardSurface1SG.message" ":defaultLightSet.message";
relationship "shadowLink" ":lightLinker1" "aiStandardSurface2SG.message" ":defaultLightSet.message";
connectAttr "aiStandardSurface1SG.pa" ":renderPartition.st" -na;
connectAttr "aiStandardSurface2SG.pa" ":renderPartition.st" -na;
connectAttr "aiStandardSurface1.msg" ":defaultShaderList1.s" -na;
connectAttr "aiStandardSurface2.msg" ":defaultShaderList1.s" -na;
connectAttr "place2dTexture2.msg" ":defaultRenderUtilityList1.u" -na;
connectAttr "file2.msg" ":defaultTextureList1.tx" -na;
connectAttr "Luxo_ball_ArnoldShape.ciog.cog[1]" ":initialShadingGroup.dsm" -na;
connectAttr "groupId3.msg" ":initialShadingGroup.gn" -na;
// End of Arnold Luxo ball.ma
